{
 "tillage_log": {
  "attributes": {
   "status": "done",
   "name": "tillage"
  },
  "relationships": {
   "quantity": [
    {
     "type": "quantity--standard",
     "id": "5aedaea2-e464-4c0c-a28e-93f3700375e2"
    },
    {
     "type": "quantity--standard",
     "id": "be97c344-2029-4b6f-9476-e5162581558b"
    }
   ],
   "location": [
    {
     "type": "asset--land",
     "id": "02b0b7ae-0b40-4fe1-97ea-4da7fe474b00"
    }
   ]
  },
  "id": "e77dcde2-5558-4bf0-8993-353560f4bb58"
 },
 "stir_quantity": {
  "attributes": {
   "label": "STIR"
  },
  "id": "5aedaea2-e464-4c0c-a28e-93f3700375e2"
 },
 "depth_quantity": {
  "attributes": {
   "label": "depth"
  },
  "id": "be97c344-2029-4b6f-9476-e5162581558b"
 }
}