{
 "title": "Log category taxonomy term",
 "type": "object",
 "properties": {
  "id": {
   "type": "string",
   "format": "uuid"
  },
  "type": {
   "const": "taxonomy_term--log_category"
  },
  "meta": {
   "type": "object"
  },
  "attributes": {
   "description": "Entity attributes",
   "type": "object",
   "properties": {
    "drupal_internal__tid": {
     "type": "integer",
     "title": "Term ID",
     "description": "The term ID."
    },
    "status": {
     "const": true
    },
    "name": {
     "const": "tillage"
    },
    "description": {
     "type": "object",
     "properties": {
      "value": {
       "type": "string",
       "title": "Text"
      },
      "format": {
       "type": "string",
       "title": "Text format"
      }
     },
     "required": [
      "value"
     ],
     "title": "Description"
    },
    "weight": {
     "type": "integer",
     "title": "Weight",
     "description": "The weight of this term in relation to other terms.",
     "default": 0
    }
   },
   "required": [
    "name"
   ],
   "additionalProperties": false
  },
  "relationships": {
   "description": "Entity relationships",
   "properties": {
    "vid": {
     "title": "Vocabulary",
     "type": "object",
     "required": [
      "id",
      "type"
     ],
     "properties": {
      "id": {
       "type": "string",
       "title": "Resource ID",
       "format": "uuid",
       "maxLength": 128
      },
      "type": {
       "type": "string"
      }
     }
    },
    "parent": {
     "type": "array",
     "title": "Term Parents",
     "items": {
      "type": "object",
      "required": [
       "id",
       "type"
      ],
      "properties": {
       "id": {
        "type": "string",
        "title": "Resource ID",
        "format": "uuid",
        "maxLength": 128
       },
       "type": {
        "type": "string"
       }
      }
     }
    }
   },
   "type": "object",
   "additionalProperties": false
  }
 },
 "description": "The only identifier for a tillage log activity *MUST* be its tillage log category taxonomy term."
}